<svg id="Capa_1" data-name="Capa 1" xmlns="http://www.w3.org/2000/svg" viewBox="0 0 1080 1080">
    <defs>
        <style>.cls-1{fill:#00caf2;}.cls-2,.cls-3,.cls-6{fill:none;stroke-linecap:round;}.cls-2{stroke:#00caf2;}.cls-2,.cls-3,.cls-5{stroke-miterlimit:10;}.cls-2,.cls-3{stroke-width:5.94px;}.cls-3,.cls-5,.cls-6{stroke:#003951;}.cls-4,.cls-5{fill:#003951;}.cls-5{stroke-width:0.31px;}.cls-6{stroke-linejoin:round;stroke-width:8.44px;}</style>
    </defs>
    <path class="cls-1" d="M472.34,389.94c-38.6,39.57-43,78-43,78a122,122,0,0,1,42.42,216.75s26.62,42.49,68.39,53.89l.32-.3a208,208,0,0,0-68.13-348.34" />
    <path class="cls-2" d="M656.26,790.94q-9.9.78-20,.79a249.29,249.29,0,0,1-87.74-15.84" />
    <path class="cls-2" d="M461.33,363.5A249.06,249.06,0,0,1,636.27,292c138,0,249.84,111.86,249.84,249.84,0,119.17-83.42,218.85-195.05,243.82" />
    <path class="cls-3" d="M778.28,649.35A180.34,180.34,0,0,1,591.2,716.1" />
    <path class="cls-3" d="M657.87,362.66A180.19,180.19,0,0,1,796.49,619.52" />
    <path class="cls-3" d="M536.55,389.93A179,179,0,0,1,622.7,361.5" />
    <path class="cls-2" d="M710,439.07a126,126,0,0,1-97.8,227.2" />
    <path class="cls-2" d="M576.58,433.59a126.31,126.31,0,0,1,106.94-8.36" />
    <circle class="cls-4" cx="640.29" cy="559.87" r="11.3" />
    <circle class="cls-5" cx="640.29" cy="361.13" r="7.45" />
    <circle class="cls-5" cx="697.21" cy="431.39" r="7.45" />
    <circle class="cls-5" cx="788.05" cy="634.91" r="7.45" />
    <circle class="cls-5" cx="673.72" cy="788.55" r="7.45" />
    <line class="cls-6" x1="640.29" y1="559.87" x2="824.15" y2="377.2" />
    <path class="cls-4" d="M516.41,757.31A207,207,0,0,1,399.89,793c-104.57,0-200.27-77.16-205.81-177.64v-4.87L193.89,284H314.34V394.64c26.12-11.81,55-17.67,85.55-17.67,15.28,0,28.78.78,43.12,3.91h0a1.42,1.42,0,0,1,.35,2.12c-31.14,37.84-43.65,81.32-43.65,81.32A122,122,0,1,0,444.4,699.79s30.12,38.87,72,57.51" />
</svg>